{
  "name": "building-notimediff",
  "centralized": false,
  "layers": {
    "type": "building",
    "count": 1,
    "host": "http://syndream.laas.fr",
    "concentrates": [{
      "type": "room",
      "count": 1,
      "feature": "self",
      "host": "http://thon.laas.fr",
      "concentrates": [{
          "type": "room",
          "count": 1,
          "feature": "parent",
          "host": "http://syndream.laas.fr",
          "concentrates": [{
            "type": "sensor",
            "host": "http://syndream.laas.fr",
            "measures": "temperature",
            "count": 1
          }]
        },
        {
          "type": "room",
          "count": 1,
          "feature": "parent",
          "host": "http://syndream.laas.fr",
          "concentrates": [{
            "type": "sensor",
            "host": "http://syndream.laas.fr",
            "measures": "luminosity",
            "count": 1
          }]
        }
      ]
    },
    {
      "type": "room",
      "count": 1,
      "feature": "self",
      "host": "http://schtroumpf.laas.fr",
      "concentrates": [{
          "type": "room",
          "count": 1,
          "feature": "parent",
          "host": "http://syndream.laas.fr",
          "concentrates": [{
            "type": "sensor",
            "host": "http://syndream.laas.fr",
            "measures": "temperature",
            "count": 1
          }]
        },
        {
          "type": "room",
          "count": 1,
          "feature": "parent",
          "host": "http://syndream.laas.fr",
          "concentrates": [{
            "type": "sensor",
            "host": "http://syndream.laas.fr",
            "measures": "luminosity",
            "count": 1
          }]
        }
      ]
    }]
  }
}
