{
  "name": "building-notimediff",
  "centralized": false,
  "layers": {
    "type": "building",
    "count": 1,
    "host": "http://syndream.laas.fr",
    "concentrates": [{
      "type": "floor",
      "count": 1,
      "host": "http://syndream.laas.fr",
      "feature": "self",
      "concentrates": [{
        "type": "sensor",
        "host": "http://syndream.laas.fr",
        "measures": "temperature_request",
        "count": 1
      }, {
        "type": "room",
        "count": 1,
        "feature": "self",
        "host": "http://syndream.laas.fr",
        "concentrates": [{
            "type": "sensor",
            "host": "http://syndream.laas.fr",
            "measures": "temperature",
            "count": 5
          },
          {
            "type": "sensor",
            "host": "http://syndream.laas.fr",
            "measures": "luminosity",
            "count": 5
          },
          {
            "type": "sensor",
            "host": "http://syndream.laas.fr",
            "measures": "noise",
            "count": 5
          },
          {
            "type": "sensor",
            "host": "http://syndream.laas.fr",
            "measures": "humidity",
            "count": 5
          }, {
            "type": "sensor",
            "host": "http://syndream.laas.fr",
            "measures": "presence",
            "count": 5
          }
        ]
      }]
    }, {
      "type": "floor",
      "count": 1,
      "host": "http://syndream.laas.fr",
      "feature": "self",
      "concentrates": [{
          "type": "sensor",
          "host": "http://syndream.laas.fr",
          "measures": "temperature_request",
          "count": 1
        }, {
          "type": "sensor",
          "host": "http://syndream.laas.fr",
          "measures": "power_redistribution",
          "count": 1
        },
        {
          "type": "room",
          "count": 1,
          "feature": "self",
          "host": "http://syndream.laas.fr",
          "concentrates": [{
              "type": "sensor",
              "host": "http://syndream.laas.fr",
              "measures": "temperature",
              "count": 5
            },
            {
              "type": "sensor",
              "host": "http://syndream.laas.fr",
              "measures": "luminosity",
              "count": 5
            },
            {
              "type": "sensor",
              "host": "http://syndream.laas.fr",
              "measures": "humidity",
              "count": 5
            }, {
              "type": "sensor",
              "host": "http://syndream.laas.fr",
              "measures": "power_production",
              "count": 5
            }
          ]
        }
      ]
    }]
  }
}
