{
  "name":"comfort-app",
  "uri":"http://syndream.laas.fr/",
  "port":8005,
  "endpoint":"http://syndream.laas.fr:6001/rules/add",
  "ruleset":[
    "rules-syndream-distribution/abstract/r1.ttl",
    "rules-syndream-distribution/abstract/r2.ttl",
    "rules-syndream-distribution/abstract/r3.ttl",
    "rules-syndream-distribution/abstract/r4.ttl"
  ]
}
