{
  "name": "myFactory",
  "layers": {
    "type": "building",
    "host": "http://syndream.laas.fr",
    "concentrates": [
      {
        "type": "floor",
        "feature": "https://w3id.org/laas-iot/edr/iiot/factory#Floor0",
        "host": "http://syndream.laas.fr",
        "concentrates": [
          {
            "type": "sensor",
            "measures": "presence",
            "host": "http://syndream.laas.fr",
            "count": 1
          },
          {
            "type": "sensor",
            "measures": "luminosity",
            "host": "http://syndream.laas.fr",
            "count": 1
          },
          {
            "type": "sensor",
            "measures": "particle_level",
            "host": "http://syndream.laas.fr",
            "count": 1
          },
          {
            "type": "sensor",
            "measures": "temperature",
            "host": "http://syndream.laas.fr",
            "count": 1
          },
          {
            "type": "gallery",
            "feature": "https://w3id.org/laas-iot/edr/iiot/factory#Conveyor00",
            "host": "http://rate.laas.fr",
            "concentrates": [
              {
                "type": "sensor",
                "measures": "conveyor_state",
                "host": "http://syndream.laas.fr",
                "count": 1
              },
              {
                "type": "sensor",
                "measures": "presence",
                "host": "http://syndream.laas.fr",
                "count": 1
              },
              {
                "type": "sensor",
                "measures": "conveyor_speed",
                "host": "http://syndream.laas.fr",
                "count": 1
              },
              {
                "type": "sensor",
                "measures": "supervisor_presence",
                "host": "http://syndream.laas.fr",
                "count": 1
              },
              {
                "type": "room",
                "feature": "https://w3id.org/laas-iot/edr/iiot/factory#Machine000",
                "host": "http://140.93.48.11",
                "concentrates": [
                  {
                    "type": "sensor",
                    "measures": "machine_state",
                    "host": "http://syndream.laas.fr",
                    "count": 1
                  },
                  {
                    "type": "sensor",
                    "measures": "product_quality",
                    "host": "http://syndream.laas.fr",
                    "count": 1
                  },
                  {
                    "type": "sensor",
                    "measures": "machine_speed",
                    "host": "http://syndream.laas.fr",
                    "count": 1
                  }
                ],
                "count": 1
              },
              {
                "type": "room",
                "feature": "https://w3id.org/laas-iot/edr/iiot/factory#Machine001",
                "host": "http://140.93.48.11",
                "concentrates": [
                  {
                    "type": "sensor",
                    "measures": "machine_state",
                    "host": "http://syndream.laas.fr",
                    "count": 1
                  },
                  {
                    "type": "sensor",
                    "measures": "product_quality",
                    "host": "http://syndream.laas.fr",
                    "count": 1
                  },
                  {
                    "type": "sensor",
                    "measures": "machine_speed",
                    "host": "http://syndream.laas.fr",
                    "count": 1
                  }
                ],
                "count": 1
              }
            ],
            "count": 1
          },
          {
            "type": "gallery",
            "feature": "https://w3id.org/laas-iot/edr/iiot/factory#Conveyor01",
            "host": "http://rate.laas.fr",
            "concentrates": [
              {
                "type": "sensor",
                "measures": "conveyor_state",
                "host": "http://syndream.laas.fr",
                "count": 1
              },
              {
                "type": "sensor",
                "measures": "conveyor_speed",
                "host": "http://syndream.laas.fr",
                "count": 1
              },
              {
                "type": "sensor",
                "measures": "supervisor_presence",
                "host": "http://syndream.laas.fr",
                "count": 1
              },
              {
                "type": "room",
                "feature": "https://w3id.org/laas-iot/edr/iiot/factory#Machine010",
                "host": "http://140.93.48.11",
                "concentrates": [
                  {
                    "type": "sensor",
                    "measures": "machine_state",
                    "host": "http://syndream.laas.fr",
                    "count": 1
                  },
                  {
                    "type": "sensor",
                    "measures": "product_quality",
                    "host": "http://syndream.laas.fr",
                    "count": 1
                  },
                  {
                    "type": "sensor",
                    "measures": "machine_speed",
                    "host": "http://syndream.laas.fr",
                    "count": 1
                  }
                ],
                "count": 1
              },
              {
                "type": "room",
                "feature": "https://w3id.org/laas-iot/edr/iiot/factory#Machine011",
                "host": "http://140.93.48.11",
                "concentrates": [
                  {
                    "type": "sensor",
                    "measures": "machine_state",
                    "host": "http://syndream.laas.fr",
                    "count": 1
                  },
                  {
                    "type": "sensor",
                    "measures": "product_quality",
                    "host": "http://syndream.laas.fr",
                    "count": 1
                  },
                  {
                    "type": "sensor",
                    "measures": "machine_speed",
                    "host": "http://syndream.laas.fr",
                    "count": 1
                  }
                ],
                "count": 1
              }
            ],
            "count": 1
          }
        ],
        "count": 1
      },
      {
        "type": "floor",
        "feature": "https://w3id.org/laas-iot/edr/iiot/factory#Floor1",
        "host": "http://syndream.laas.fr",
        "concentrates": [
          {
            "type": "sensor",
            "measures": "presence",
            "host": "http://syndream.laas.fr",
            "count": 1
          },
          {
            "type": "sensor",
            "measures": "luminosity",
            "host": "http://syndream.laas.fr",
            "count": 1
          },
          {
            "type": "sensor",
            "measures": "particle_level",
            "host": "http://syndream.laas.fr",
            "count": 1
          },
          {
            "type": "sensor",
            "measures": "temperature",
            "host": "http://syndream.laas.fr",
            "count": 1
          },
          {
            "type": "gallery",
            "feature": "https://w3id.org/laas-iot/edr/iiot/factory#Conveyor10",
            "host": "http://rate.laas.fr",
            "concentrates": [
              {
                "type": "sensor",
                "measures": "conveyor_state",
                "host": "http://syndream.laas.fr",
                "count": 1
              },
              {
                "type": "sensor",
                "measures": "presence",
                "host": "http://syndream.laas.fr",
                "count": 1
              },
              {
                "type": "sensor",
                "measures": "conveyor_speed",
                "host": "http://syndream.laas.fr",
                "count": 1
              },
              {
                "type": "sensor",
                "measures": "supervisor_presence",
                "host": "http://syndream.laas.fr",
                "count": 1
              },
              {
                "type": "room",
                "feature": "https://w3id.org/laas-iot/edr/iiot/factory#Machine100",
                "host": "http://140.93.48.11",
                "concentrates": [
                  {
                    "type": "sensor",
                    "measures": "machine_state",
                    "host": "http://syndream.laas.fr",
                    "count": 1
                  },
                  {
                    "type": "sensor",
                    "measures": "product_quality",
                    "host": "http://syndream.laas.fr",
                    "count": 1
                  },
                  {
                    "type": "sensor",
                    "measures": "machine_speed",
                    "host": "http://syndream.laas.fr",
                    "count": 1
                  }
                ],
                "count": 1
              },
              {
                "type": "room",
                "feature": "https://w3id.org/laas-iot/edr/iiot/factory#Machine101",
                "host": "http://140.93.48.11",
                "concentrates": [
                  {
                    "type": "sensor",
                    "measures": "machine_state",
                    "host": "http://syndream.laas.fr",
                    "count": 1
                  },
                  {
                    "type": "sensor",
                    "measures": "product_quality",
                    "host": "http://syndream.laas.fr",
                    "count": 1
                  },
                  {
                    "type": "sensor",
                    "measures": "machine_speed",
                    "host": "http://syndream.laas.fr",
                    "count": 1
                  }
                ],
                "count": 1
              }
            ],
            "count": 1
          },
          {
            "type": "gallery",
            "feature": "https://w3id.org/laas-iot/edr/iiot/factory#Conveyor11",
            "host": "http://rate.laas.fr",
            "concentrates": [
              {
                "type": "sensor",
                "measures": "conveyor_state",
                "host": "http://syndream.laas.fr",
                "count": 1
              },
              {
                "type": "sensor",
                "measures": "conveyor_speed",
                "host": "http://syndream.laas.fr",
                "count": 1
              },
              {
                "type": "sensor",
                "measures": "supervisor_presence",
                "host": "http://syndream.laas.fr",
                "count": 1
              },
              {
                "type": "room",
                "feature": "https://w3id.org/laas-iot/edr/iiot/factory#Machine110",
                "host": "http://140.93.48.11",
                "concentrates": [
                  {
                    "type": "sensor",
                    "measures": "machine_state",
                    "host": "http://syndream.laas.fr",
                    "count": 1
                  },
                  {
                    "type": "sensor",
                    "measures": "product_quality",
                    "host": "http://syndream.laas.fr",
                    "count": 1
                  },
                  {
                    "type": "sensor",
                    "measures": "machine_speed",
                    "host": "http://syndream.laas.fr",
                    "count": 1
                  }
                ],
                "count": 1
              },
              {
                "type": "room",
                "feature": "https://w3id.org/laas-iot/edr/iiot/factory#Machine111",
                "host": "http://140.93.48.11",
                "concentrates": [
                  {
                    "type": "sensor",
                    "measures": "machine_state",
                    "host": "http://syndream.laas.fr",
                    "count": 1
                  },
                  {
                    "type": "sensor",
                    "measures": "product_quality",
                    "host": "http://syndream.laas.fr",
                    "count": 1
                  },
                  {
                    "type": "sensor",
                    "measures": "machine_speed",
                    "host": "http://syndream.laas.fr",
                    "count": 1
                  }
                ],
                "count": 1
              }
            ],
            "count": 1
          }
        ],
        "count": 1
      }
    ],
    "count": 1
  },
  "common_knowledge": [
    "https://w3id.org/laas-iot/edr/iiot/scala_syndream/clone_f_1.ttl"
  ],
  "centralized": "adp"
}