{
  "layers": {
    "concentrates": [
      {
        "concentrates": [
          {
            "measures": "presence",
            "host": "http://syndream.laas.fr",
            "count": 1,
            "type": "sensor"
          },
          {
            "measures": "luminosity",
            "host": "http://syndream.laas.fr",
            "count": 1,
            "type": "sensor"
          },
          {
            "measures": "particle_level",
            "host": "http://syndream.laas.fr",
            "count": 1,
            "type": "sensor"
          },
          {
            "measures": "temperature",
            "host": "http://syndream.laas.fr",
            "count": 1,
            "type": "sensor"
          },
          {
            "concentrates": [
              {
                "measures": "conveyor_state",
                "host": "http://syndream.laas.fr",
                "count": 1,
                "type": "sensor"
              },
              {
                "measures": "presence",
                "host": "http://syndream.laas.fr",
                "count": 1,
                "type": "sensor"
              },
              {
                "measures": "conveyor_speed",
                "host": "http://syndream.laas.fr",
                "count": 1,
                "type": "sensor"
              },
              {
                "measures": "supervisor_presence",
                "host": "http://syndream.laas.fr",
                "count": 1,
                "type": "sensor"
              },
              {
                "concentrates": [
                  {
                    "measures": "machine_state",
                    "host": "http://syndream.laas.fr",
                    "count": 1,
                    "type": "sensor"
                  },
                  {
                    "measures": "product_quality",
                    "host": "http://syndream.laas.fr",
                    "count": 1,
                    "type": "sensor"
                  },
                  {
                    "measures": "machine_speed",
                    "host": "http://syndream.laas.fr",
                    "count": 1,
                    "type": "sensor"
                  }
                ],
                "host": "http://140.93.48.11",
                "count": 1,
                "type": "room",
                "feature": "https://w3id.org/laas-iot/edr/iiot/factory#Machine000"
              },
              {
                "concentrates": [
                  {
                    "measures": "machine_state",
                    "host": "http://syndream.laas.fr",
                    "count": 1,
                    "type": "sensor"
                  },
                  {
                    "measures": "product_quality",
                    "host": "http://syndream.laas.fr",
                    "count": 1,
                    "type": "sensor"
                  },
                  {
                    "measures": "machine_speed",
                    "host": "http://syndream.laas.fr",
                    "count": 1,
                    "type": "sensor"
                  }
                ],
                "host": "http://140.93.48.11",
                "count": 1,
                "type": "room",
                "feature": "https://w3id.org/laas-iot/edr/iiot/factory#Machine001"
              }
            ],
            "host": "http://rate.laas.fr",
            "count": 1,
            "type": "gallery",
            "feature": "https://w3id.org/laas-iot/edr/iiot/factory#Conveyor00"
          },
          {
            "concentrates": [
              {
                "measures": "conveyor_state",
                "host": "http://syndream.laas.fr",
                "count": 1,
                "type": "sensor"
              },
              {
                "measures": "conveyor_speed",
                "host": "http://syndream.laas.fr",
                "count": 1,
                "type": "sensor"
              },
              {
                "measures": "supervisor_presence",
                "host": "http://syndream.laas.fr",
                "count": 1,
                "type": "sensor"
              },
              {
                "concentrates": [
                  {
                    "measures": "machine_state",
                    "host": "http://syndream.laas.fr",
                    "count": 1,
                    "type": "sensor"
                  },
                  {
                    "measures": "product_quality",
                    "host": "http://syndream.laas.fr",
                    "count": 1,
                    "type": "sensor"
                  },
                  {
                    "measures": "machine_speed",
                    "host": "http://syndream.laas.fr",
                    "count": 1,
                    "type": "sensor"
                  }
                ],
                "host": "http://140.93.48.11",
                "count": 1,
                "type": "room",
                "feature": "https://w3id.org/laas-iot/edr/iiot/factory#Machine010"
              },
              {
                "concentrates": [
                  {
                    "measures": "machine_state",
                    "host": "http://syndream.laas.fr",
                    "count": 1,
                    "type": "sensor"
                  },
                  {
                    "measures": "product_quality",
                    "host": "http://syndream.laas.fr",
                    "count": 1,
                    "type": "sensor"
                  },
                  {
                    "measures": "machine_speed",
                    "host": "http://syndream.laas.fr",
                    "count": 1,
                    "type": "sensor"
                  }
                ],
                "host": "http://140.93.48.11",
                "count": 1,
                "type": "room",
                "feature": "https://w3id.org/laas-iot/edr/iiot/factory#Machine011"
              }
            ],
            "host": "http://rate.laas.fr",
            "count": 1,
            "type": "gallery",
            "feature": "https://w3id.org/laas-iot/edr/iiot/factory#Conveyor01"
          }
        ],
        "host": "http://syndream.laas.fr",
        "count": 1,
        "type": "floor",
        "feature": "https://w3id.org/laas-iot/edr/iiot/factory#Floor0"
      }
    ],
    "host": "http://syndream.laas.fr",
    "count": 1,
    "type": "building"
  },
  "centralized": "adp",
  "common_knowledge": [
    "https://w3id.org/laas-iot/edr/iiot/scala_syndream/clone_f_0.ttl"
  ],
  "name": "myFactory"
}