{
  "name": "myFactory",
  "centralized": "adp",
  "layers": {
    "count": 1,
    "host": "http://syndream.laas.fr",
    "type": "building",
    "concentrates": [
      {
        "count": 1,
        "host": "http://syndream.laas.fr",
        "type": "floor",
        "feature": "https://w3id.org/laas-iot/edr/iiot/factory#Floor0",
        "concentrates": [
          {
            "count": 1,
            "host": "http://syndream.laas.fr",
            "type": "sensor",
            "measures": "presence"
          },
          {
            "count": 1,
            "host": "http://syndream.laas.fr",
            "type": "sensor",
            "measures": "luminosity"
          },
          {
            "count": 1,
            "host": "http://syndream.laas.fr",
            "type": "sensor",
            "measures": "particle_level"
          },
          {
            "count": 1,
            "host": "http://syndream.laas.fr",
            "type": "sensor",
            "measures": "temperature"
          },
          {
            "count": 1,
            "host": "http://rate.laas.fr",
            "type": "gallery",
            "feature": "https://w3id.org/laas-iot/edr/iiot/factory#Conveyor00",
            "concentrates": [
              {
                "count": 1,
                "host": "http://syndream.laas.fr",
                "type": "sensor",
                "measures": "conveyor_state"
              },
              {
                "count": 1,
                "host": "http://syndream.laas.fr",
                "type": "sensor",
                "measures": "presence"
              },
              {
                "count": 1,
                "host": "http://syndream.laas.fr",
                "type": "sensor",
                "measures": "conveyor_speed"
              },
              {
                "count": 1,
                "host": "http://syndream.laas.fr",
                "type": "sensor",
                "measures": "supervisor_presence"
              },
              {
                "count": 1,
                "host": "http://140.93.48.11",
                "type": "room",
                "feature": "https://w3id.org/laas-iot/edr/iiot/factory#Machine000",
                "concentrates": [
                  {
                    "count": 1,
                    "host": "http://syndream.laas.fr",
                    "type": "sensor",
                    "measures": "machine_state"
                  },
                  {
                    "count": 1,
                    "host": "http://syndream.laas.fr",
                    "type": "sensor",
                    "measures": "product_quality"
                  },
                  {
                    "count": 1,
                    "host": "http://syndream.laas.fr",
                    "type": "sensor",
                    "measures": "machine_speed"
                  }
                ]
              },
              {
                "count": 1,
                "host": "http://140.93.48.11",
                "type": "room",
                "feature": "https://w3id.org/laas-iot/edr/iiot/factory#Machine001",
                "concentrates": [
                  {
                    "count": 1,
                    "host": "http://syndream.laas.fr",
                    "type": "sensor",
                    "measures": "machine_state"
                  },
                  {
                    "count": 1,
                    "host": "http://syndream.laas.fr",
                    "type": "sensor",
                    "measures": "product_quality"
                  },
                  {
                    "count": 1,
                    "host": "http://syndream.laas.fr",
                    "type": "sensor",
                    "measures": "machine_speed"
                  }
                ]
              }
            ]
          },
          {
            "count": 1,
            "host": "http://rate.laas.fr",
            "type": "gallery",
            "feature": "https://w3id.org/laas-iot/edr/iiot/factory#Conveyor01",
            "concentrates": [
              {
                "count": 1,
                "host": "http://syndream.laas.fr",
                "type": "sensor",
                "measures": "conveyor_state"
              },
              {
                "count": 1,
                "host": "http://syndream.laas.fr",
                "type": "sensor",
                "measures": "conveyor_speed"
              },
              {
                "count": 1,
                "host": "http://syndream.laas.fr",
                "type": "sensor",
                "measures": "supervisor_presence"
              },
              {
                "count": 1,
                "host": "http://140.93.48.11",
                "type": "room",
                "feature": "https://w3id.org/laas-iot/edr/iiot/factory#Machine010",
                "concentrates": [
                  {
                    "count": 1,
                    "host": "http://syndream.laas.fr",
                    "type": "sensor",
                    "measures": "machine_state"
                  },
                  {
                    "count": 1,
                    "host": "http://syndream.laas.fr",
                    "type": "sensor",
                    "measures": "product_quality"
                  },
                  {
                    "count": 1,
                    "host": "http://syndream.laas.fr",
                    "type": "sensor",
                    "measures": "machine_speed"
                  }
                ]
              },
              {
                "count": 1,
                "host": "http://140.93.48.11",
                "type": "room",
                "feature": "https://w3id.org/laas-iot/edr/iiot/factory#Machine011",
                "concentrates": [
                  {
                    "count": 1,
                    "host": "http://syndream.laas.fr",
                    "type": "sensor",
                    "measures": "machine_state"
                  },
                  {
                    "count": 1,
                    "host": "http://syndream.laas.fr",
                    "type": "sensor",
                    "measures": "product_quality"
                  },
                  {
                    "count": 1,
                    "host": "http://syndream.laas.fr",
                    "type": "sensor",
                    "measures": "machine_speed"
                  }
                ]
              }
            ]
          }
        ]
      }
    ]
  },
  "common_knowledge": [
    "https://w3id.org/laas-iot/edr/iiot/scala_distributed/clone_f_0_rpi23sb.ttl"
  ]
}