{
  "centralized": "adp",
  "layers": {
    "count": 1,
    "type": "building",
    "host": "http://localhost",
    "concentrates": [
      {
        "count": 1,
        "type": "floor",
        "feature": "https://w3id.org/laas-iot/edr/iiot/factory#Floor0",
        "host": "http://localhost",
        "concentrates": [
          {
            "count": 1,
            "type": "sensor",
            "host": "http://localhost",
            "measures": "presence"
          },
          {
            "count": 1,
            "type": "sensor",
            "host": "http://localhost",
            "measures": "luminosity"
          },
          {
            "count": 1,
            "type": "sensor",
            "host": "http://localhost",
            "measures": "particle_level"
          },
          {
            "count": 1,
            "type": "sensor",
            "host": "http://localhost",
            "measures": "temperature"
          },
          {
            "count": 1,
            "type": "gallery",
            "feature": "https://w3id.org/laas-iot/edr/iiot/factory#Conveyor00",
            "host": "http://localhost",
            "concentrates": [
              {
                "count": 1,
                "type": "sensor",
                "host": "http://localhost",
                "measures": "conveyor_state"
              },
              {
                "count": 1,
                "type": "sensor",
                "host": "http://localhost",
                "measures": "presence"
              },
              {
                "count": 1,
                "type": "sensor",
                "host": "http://localhost",
                "measures": "conveyor_speed"
              },
              {
                "count": 1,
                "type": "sensor",
                "host": "http://localhost",
                "measures": "supervisor_presence"
              },
              {
                "count": 1,
                "type": "room",
                "feature": "https://w3id.org/laas-iot/edr/iiot/factory#Machine000",
                "host": "http://localhost",
                "concentrates": [
                  {
                    "count": 1,
                    "type": "sensor",
                    "host": "http://localhost",
                    "measures": "machine_state"
                  },
                  {
                    "count": 1,
                    "type": "sensor",
                    "host": "http://localhost",
                    "measures": "product_quality"
                  },
                  {
                    "count": 1,
                    "type": "sensor",
                    "host": "http://localhost",
                    "measures": "machine_speed"
                  }
                ]
              },
              {
                "count": 1,
                "type": "room",
                "feature": "https://w3id.org/laas-iot/edr/iiot/factory#Machine001",
                "host": "http://localhost",
                "concentrates": [
                  {
                    "count": 1,
                    "type": "sensor",
                    "host": "http://localhost",
                    "measures": "machine_state"
                  },
                  {
                    "count": 1,
                    "type": "sensor",
                    "host": "http://localhost",
                    "measures": "product_quality"
                  },
                  {
                    "count": 1,
                    "type": "sensor",
                    "host": "http://localhost",
                    "measures": "machine_speed"
                  }
                ]
              }
            ]
          },
          {
            "count": 1,
            "type": "gallery",
            "feature": "https://w3id.org/laas-iot/edr/iiot/factory#Conveyor01",
            "host": "http://localhost",
            "concentrates": [
              {
                "count": 1,
                "type": "sensor",
                "host": "http://localhost",
                "measures": "conveyor_state"
              },
              {
                "count": 1,
                "type": "sensor",
                "host": "http://localhost",
                "measures": "conveyor_speed"
              },
              {
                "count": 1,
                "type": "sensor",
                "host": "http://localhost",
                "measures": "supervisor_presence"
              },
              {
                "count": 1,
                "type": "room",
                "feature": "https://w3id.org/laas-iot/edr/iiot/factory#Machine010",
                "host": "http://localhost",
                "concentrates": [
                  {
                    "count": 1,
                    "type": "sensor",
                    "host": "http://localhost",
                    "measures": "machine_state"
                  },
                  {
                    "count": 1,
                    "type": "sensor",
                    "host": "http://localhost",
                    "measures": "product_quality"
                  },
                  {
                    "count": 1,
                    "type": "sensor",
                    "host": "http://localhost",
                    "measures": "machine_speed"
                  }
                ]
              },
              {
                "count": 1,
                "type": "room",
                "feature": "https://w3id.org/laas-iot/edr/iiot/factory#Machine011",
                "host": "http://localhost",
                "concentrates": [
                  {
                    "count": 1,
                    "type": "sensor",
                    "host": "http://localhost",
                    "measures": "machine_state"
                  },
                  {
                    "count": 1,
                    "type": "sensor",
                    "host": "http://localhost",
                    "measures": "product_quality"
                  },
                  {
                    "count": 1,
                    "type": "sensor",
                    "host": "http://localhost",
                    "measures": "machine_speed"
                  }
                ]
              }
            ]
          }
        ]
      },
      {
        "count": 1,
        "type": "floor",
        "feature": "https://w3id.org/laas-iot/edr/iiot/factory#Floor1",
        "host": "http://localhost",
        "concentrates": [
          {
            "count": 1,
            "type": "sensor",
            "host": "http://localhost",
            "measures": "presence"
          },
          {
            "count": 1,
            "type": "sensor",
            "host": "http://localhost",
            "measures": "luminosity"
          },
          {
            "count": 1,
            "type": "sensor",
            "host": "http://localhost",
            "measures": "particle_level"
          },
          {
            "count": 1,
            "type": "sensor",
            "host": "http://localhost",
            "measures": "temperature"
          },
          {
            "count": 1,
            "type": "gallery",
            "feature": "https://w3id.org/laas-iot/edr/iiot/factory#Conveyor10",
            "host": "http://localhost",
            "concentrates": [
              {
                "count": 1,
                "type": "sensor",
                "host": "http://localhost",
                "measures": "conveyor_state"
              },
              {
                "count": 1,
                "type": "sensor",
                "host": "http://localhost",
                "measures": "presence"
              },
              {
                "count": 1,
                "type": "sensor",
                "host": "http://localhost",
                "measures": "conveyor_speed"
              },
              {
                "count": 1,
                "type": "sensor",
                "host": "http://localhost",
                "measures": "supervisor_presence"
              },
              {
                "count": 1,
                "type": "room",
                "feature": "https://w3id.org/laas-iot/edr/iiot/factory#Machine100",
                "host": "http://localhost",
                "concentrates": [
                  {
                    "count": 1,
                    "type": "sensor",
                    "host": "http://localhost",
                    "measures": "machine_state"
                  },
                  {
                    "count": 1,
                    "type": "sensor",
                    "host": "http://localhost",
                    "measures": "product_quality"
                  },
                  {
                    "count": 1,
                    "type": "sensor",
                    "host": "http://localhost",
                    "measures": "machine_speed"
                  }
                ]
              },
              {
                "count": 1,
                "type": "room",
                "feature": "https://w3id.org/laas-iot/edr/iiot/factory#Machine101",
                "host": "http://localhost",
                "concentrates": [
                  {
                    "count": 1,
                    "type": "sensor",
                    "host": "http://localhost",
                    "measures": "machine_state"
                  },
                  {
                    "count": 1,
                    "type": "sensor",
                    "host": "http://localhost",
                    "measures": "product_quality"
                  },
                  {
                    "count": 1,
                    "type": "sensor",
                    "host": "http://localhost",
                    "measures": "machine_speed"
                  }
                ]
              }
            ]
          },
          {
            "count": 1,
            "type": "gallery",
            "feature": "https://w3id.org/laas-iot/edr/iiot/factory#Conveyor11",
            "host": "http://localhost",
            "concentrates": [
              {
                "count": 1,
                "type": "sensor",
                "host": "http://localhost",
                "measures": "conveyor_state"
              },
              {
                "count": 1,
                "type": "sensor",
                "host": "http://localhost",
                "measures": "conveyor_speed"
              },
              {
                "count": 1,
                "type": "sensor",
                "host": "http://localhost",
                "measures": "supervisor_presence"
              },
              {
                "count": 1,
                "type": "room",
                "feature": "https://w3id.org/laas-iot/edr/iiot/factory#Machine110",
                "host": "http://localhost",
                "concentrates": [
                  {
                    "count": 1,
                    "type": "sensor",
                    "host": "http://localhost",
                    "measures": "machine_state"
                  },
                  {
                    "count": 1,
                    "type": "sensor",
                    "host": "http://localhost",
                    "measures": "product_quality"
                  },
                  {
                    "count": 1,
                    "type": "sensor",
                    "host": "http://localhost",
                    "measures": "machine_speed"
                  }
                ]
              },
              {
                "count": 1,
                "type": "room",
                "feature": "https://w3id.org/laas-iot/edr/iiot/factory#Machine111",
                "host": "http://localhost",
                "concentrates": [
                  {
                    "count": 1,
                    "type": "sensor",
                    "host": "http://localhost",
                    "measures": "machine_state"
                  },
                  {
                    "count": 1,
                    "type": "sensor",
                    "host": "http://localhost",
                    "measures": "product_quality"
                  },
                  {
                    "count": 1,
                    "type": "sensor",
                    "host": "http://localhost",
                    "measures": "machine_speed"
                  }
                ]
              }
            ]
          }
        ]
      }
    ]
  },
  "name": "myFactory",
  "common_knowledge": [
    "https://w3id.org/laas-iot/edr/iiot/scala_syndream/clone_f_1.ttl"
  ]
}