{
  "type":"factory",
  "floors":[{
      "type":"floor",
      "sensors":[],
      "count":1,
      "conveyors":[{
          "type":"conveyor",
          "sensors":["luminosity", "presence", "conveyor_state", "conveyor_speed", "supervisor_presence"],
          "count":2,
          "machines":[{
              "type":"spark_machine",
              "sensors":["particle_level", "luminosity", "presence", "machine_state", "product_quality", "machine_speed"],
              "count":1
            },{
              "type":"temperature_machine",
              "sensors":["temperature", "luminosity", "presence", "machine_state", "product_quality", "machine_speed"],
              "count":1
          }]
        }
      ]
    }
  ]
}
