{
  "name": "building-notimediff",
  "centralized": true,
  "layers": {
    "type": "building",
    "count": 1,
    "host": "http://syndream.laas.fr",
    "concentrates": [{
      "type": "floor",
      "count": 2,
      "host": "http://140.93.48.5",
      "feature": "self",
      "concentrates": [{
        "type": "gallery",
        "count": 1,
        "feature": "self",
        "host": "http://140.93.48.5",
        "concentrates": [{
            "type": "room",
            "count": 2,
            "feature": "self",
            "host": "http://syndream.laas.fr",
            "concentrates": [{
                "type": "sensor",
                "host": "http://syndream.laas.fr",
                "measures": "temperature",
                "count": 1,
                "cycleDuration": 2000
              }, {
              "type": "sensor",
              "host": "http://syndream.laas.fr",
              "measures": "luminosity",
              "count": 1,
              "cycleDuration": 2000
            }, {
              "type": "sensor",
              "host": "http://syndream.laas.fr",
              "measures": "temperature_request",
              "count": 1,
              "cycleDuration": 2000
            },{
                "type": "sensor",
                "host": "http://syndream.laas.fr",
                "measures": "power_production",
                "count": 1,
                "cycleDuration": 2000
            }]
          }]
      },{
        "type": "gallery",
        "count": 1,
        "feature": "self",
        "host": "http://140.93.48.5",
        "concentrates": [{
            "type": "room",
            "count": 1,
            "feature": "self",
            "host": "http://syndream.laas.fr",
            "concentrates": [{
                "type": "sensor",
                "host": "http://syndream.laas.fr",
                "measures": "temperature",
                "count": 1,
                "cycleDuration": 2000
              }, {
              "type": "sensor",
              "host": "http://syndream.laas.fr",
              "measures": "luminosity",
              "count": 1,
              "cycleDuration": 2000
            }, {
              "type": "sensor",
              "host": "http://syndream.laas.fr",
              "measures": "temperature_request",
              "count": 1,
              "cycleDuration": 2000
            },{
                "type": "sensor",
                "host": "http://syndream.laas.fr",
                "measures": "power_production",
                "count": 1,
                "cycleDuration": 2000
            }]
          },{
            "type": "room",
            "count": 1,
            "feature": "self",
            "host": "http://syndream.laas.fr",
            "concentrates": [{
                "type": "sensor",
                "host": "http://syndream.laas.fr",
                "measures": "temperature",
                "count": 1,
                "cycleDuration": 2000
              }, {
              "type": "sensor",
              "host": "http://syndream.laas.fr",
              "measures": "luminosity",
              "count": 1,
              "cycleDuration": 2000
            }, {
              "type": "sensor",
              "host": "http://syndream.laas.fr",
              "measures": "temperature_request",
              "count": 1,
              "cycleDuration": 2000
            },{
                "type": "sensor",
                "host": "http://syndream.laas.fr",
                "measures": "power_production",
                "count": 1,
                "cycleDuration": 2000
            }]
          }]
      }]
    }]
  }
}
