{
  "type":"factory",
  "floors":[{
      "type":"floor",
      "sensors":["presence", "luminosity", "particles"],
      "count":1,
      "conveyors":[{
          "type":"conveyor",
          "sensors":["conveyor_state", "presence"],
          "count":1,
          "machines":[{
              "type":"spark_machine",
              "sensors":["machine_state", "product_quality"],
              "count":2
            },{
              "type":"machine",
              "sensors":["machine_state", "product_quality"],
              "count":1
          }]
        },{
          "type":"conveyor",
          "sensors":["conveyor_state"],
          "count":1,
          "machines":[{
              "type":"spark_machine",
              "sensors":["machine_state", "product_quality"],
              "count":2
            },{
              "type":"machine",
              "sensors":["machine_state", "product_quality"],
              "count":1
          }]
        }
      ]
    },{
        "type":"floor",
        "sensors":["presence", "luminosity", "temperature"],
        "count":1,
        "conveyors":[{
            "type":"conveyor",
            "sensors":["conveyor_state", "presence"],
            "count":1,
            "machines":[{
                "type":"temperature_machine",
                "sensors":["machine_state", "product_quality"],
                "count":2
              },{
                "type":"machine",
                "sensors":["machine_state", "product_quality"],
                "count":1
            }]
          },{
              "type":"conveyor",
              "sensors":["conveyor_state"],
              "count":1,
              "machines":[{
                  "type":"spark_machine",
                  "sensors":["machine_state", "product_quality"],
                  "count":2
                },{
                  "type":"machine",
                  "sensors":["machine_state", "product_quality"],
                  "count":1
              }]
            }
        ]
      }
  ]
}
