{
  "type":"factory",
  "floors":[{
      "type":"floor",
      "sensors":[{"type":"particle_level", "up":0}, {"type":"temperature", "up":0}],
      "count":1,
      "conveyors":[{
          "type":"conveyor",
          "sensors":[{"type":"luminosity", "up":0}, {"type":"presence", "up":0}, {"type":"conveyor_state", "up":0}, {"type":"conveyor_speed", "up":0}, {"type":"supervisor_presence", "up":0}],
          "count":2,
          "machines":[{
              "type":"spark_machine",
              "sensors":[{"type":"machine_state", "up":0}, {"type":"product_quality", "up":0}, {"type":"machine_speed", "up":0}],
              "count":1
            },{
              "type":"temperature_machine",
              "sensors":[{"type":"machine_state", "up":0}, {"type":"product_quality", "up":0}, {"type":"machine_speed", "up":0}],
              "count":1
          }]
        }
      ]
    }
  ]
}
