{
  "name": "myFactory",
  "centralized": "adp",
  "common_knowledge": [
    "https://w3id.org/laas-iot/edr/iiot/scala_distributed/clone_f_2_rpi23sb.ttl"
  ],
  "layers": {
    "host": "http://syndream.laas.fr",
    "count": 1,
    "type": "building",
    "concentrates": [
      {
        "concentrates": [
          {
            "host": "http://syndream.laas.fr",
            "measures": "particle_level",
            "up": 0,
            "count": 1,
            "type": "sensor",
            "feature": "https://w3id.org/laas-iot/edr/iiot/factory#Floor0"
          },
          {
            "host": "http://syndream.laas.fr",
            "measures": "temperature",
            "up": 0,
            "count": 1,
            "type": "sensor",
            "feature": "https://w3id.org/laas-iot/edr/iiot/factory#Floor0"
          },
          {
            "concentrates": [
              {
                "host": "http://syndream.laas.fr",
                "measures": "luminosity",
                "up": 0,
                "count": 1,
                "type": "sensor",
                "feature": "https://w3id.org/laas-iot/edr/iiot/factory#Conveyor00"
              },
              {
                "host": "http://syndream.laas.fr",
                "measures": "presence",
                "up": 0,
                "count": 1,
                "type": "sensor",
                "feature": "https://w3id.org/laas-iot/edr/iiot/factory#Conveyor00"
              },
              {
                "host": "http://syndream.laas.fr",
                "measures": "conveyor_state",
                "up": 0,
                "count": 1,
                "type": "sensor",
                "feature": "https://w3id.org/laas-iot/edr/iiot/factory#Conveyor00"
              },
              {
                "host": "http://syndream.laas.fr",
                "measures": "conveyor_speed",
                "up": 0,
                "count": 1,
                "type": "sensor",
                "feature": "https://w3id.org/laas-iot/edr/iiot/factory#Conveyor00"
              },
              {
                "host": "http://syndream.laas.fr",
                "measures": "supervisor_presence",
                "up": 0,
                "count": 1,
                "type": "sensor",
                "feature": "https://w3id.org/laas-iot/edr/iiot/factory#Conveyor00"
              },
              {
                "concentrates": [
                  {
                    "host": "http://syndream.laas.fr",
                    "measures": "machine_state",
                    "up": 0,
                    "count": 1,
                    "type": "sensor",
                    "feature": "https://w3id.org/laas-iot/edr/iiot/factory#Machine000"
                  },
                  {
                    "host": "http://syndream.laas.fr",
                    "measures": "product_quality",
                    "up": 0,
                    "count": 1,
                    "type": "sensor",
                    "feature": "https://w3id.org/laas-iot/edr/iiot/factory#Machine000"
                  },
                  {
                    "host": "http://syndream.laas.fr",
                    "measures": "machine_speed",
                    "up": 0,
                    "count": 1,
                    "type": "sensor",
                    "feature": "https://w3id.org/laas-iot/edr/iiot/factory#Machine000"
                  }
                ],
                "host": "http://blacksad.laas.fr",
                "count": 1,
                "type": "room",
                "feature": "https://w3id.org/laas-iot/edr/iiot/factory#Machine000"
              },
              {
                "concentrates": [
                  {
                    "host": "http://syndream.laas.fr",
                    "measures": "machine_state",
                    "up": 0,
                    "count": 1,
                    "type": "sensor",
                    "feature": "https://w3id.org/laas-iot/edr/iiot/factory#Machine001"
                  },
                  {
                    "host": "http://syndream.laas.fr",
                    "measures": "product_quality",
                    "up": 0,
                    "count": 1,
                    "type": "sensor",
                    "feature": "https://w3id.org/laas-iot/edr/iiot/factory#Machine001"
                  },
                  {
                    "host": "http://syndream.laas.fr",
                    "measures": "machine_speed",
                    "up": 0,
                    "count": 1,
                    "type": "sensor",
                    "feature": "https://w3id.org/laas-iot/edr/iiot/factory#Machine001"
                  }
                ],
                "host": "http://blacksad.laas.fr",
                "count": 1,
                "type": "room",
                "feature": "https://w3id.org/laas-iot/edr/iiot/factory#Machine001"
              }
            ],
            "host": "http://syndream.laas.fr",
            "count": 1,
            "type": "gallery",
            "feature": "https://w3id.org/laas-iot/edr/iiot/factory#Conveyor00"
          },
          {
            "concentrates": [
              {
                "host": "http://syndream.laas.fr",
                "measures": "luminosity",
                "up": 0,
                "count": 1,
                "type": "sensor",
                "feature": "https://w3id.org/laas-iot/edr/iiot/factory#Conveyor01"
              },
              {
                "host": "http://syndream.laas.fr",
                "measures": "presence",
                "up": 0,
                "count": 1,
                "type": "sensor",
                "feature": "https://w3id.org/laas-iot/edr/iiot/factory#Conveyor01"
              },
              {
                "host": "http://syndream.laas.fr",
                "measures": "conveyor_state",
                "up": 0,
                "count": 1,
                "type": "sensor",
                "feature": "https://w3id.org/laas-iot/edr/iiot/factory#Conveyor01"
              },
              {
                "host": "http://syndream.laas.fr",
                "measures": "conveyor_speed",
                "up": 0,
                "count": 1,
                "type": "sensor",
                "feature": "https://w3id.org/laas-iot/edr/iiot/factory#Conveyor01"
              },
              {
                "host": "http://syndream.laas.fr",
                "measures": "supervisor_presence",
                "up": 0,
                "count": 1,
                "type": "sensor",
                "feature": "https://w3id.org/laas-iot/edr/iiot/factory#Conveyor01"
              },
              {
                "concentrates": [
                  {
                    "host": "http://syndream.laas.fr",
                    "measures": "machine_state",
                    "up": 0,
                    "count": 1,
                    "type": "sensor",
                    "feature": "https://w3id.org/laas-iot/edr/iiot/factory#Machine010"
                  },
                  {
                    "host": "http://syndream.laas.fr",
                    "measures": "product_quality",
                    "up": 0,
                    "count": 1,
                    "type": "sensor",
                    "feature": "https://w3id.org/laas-iot/edr/iiot/factory#Machine010"
                  },
                  {
                    "host": "http://syndream.laas.fr",
                    "measures": "machine_speed",
                    "up": 0,
                    "count": 1,
                    "type": "sensor",
                    "feature": "https://w3id.org/laas-iot/edr/iiot/factory#Machine010"
                  }
                ],
                "host": "http://blacksad.laas.fr",
                "count": 1,
                "type": "room",
                "feature": "https://w3id.org/laas-iot/edr/iiot/factory#Machine010"
              },
              {
                "concentrates": [
                  {
                    "host": "http://syndream.laas.fr",
                    "measures": "machine_state",
                    "up": 0,
                    "count": 1,
                    "type": "sensor",
                    "feature": "https://w3id.org/laas-iot/edr/iiot/factory#Machine011"
                  },
                  {
                    "host": "http://syndream.laas.fr",
                    "measures": "product_quality",
                    "up": 0,
                    "count": 1,
                    "type": "sensor",
                    "feature": "https://w3id.org/laas-iot/edr/iiot/factory#Machine011"
                  },
                  {
                    "host": "http://syndream.laas.fr",
                    "measures": "machine_speed",
                    "up": 0,
                    "count": 1,
                    "type": "sensor",
                    "feature": "https://w3id.org/laas-iot/edr/iiot/factory#Machine011"
                  }
                ],
                "host": "http://blacksad.laas.fr",
                "count": 1,
                "type": "room",
                "feature": "https://w3id.org/laas-iot/edr/iiot/factory#Machine011"
              }
            ],
            "host": "http://syndream.laas.fr",
            "count": 1,
            "type": "gallery",
            "feature": "https://w3id.org/laas-iot/edr/iiot/factory#Conveyor01"
          }
        ],
        "host": "http://clara.laas.fr",
        "count": 1,
        "type": "floor",
        "feature": "https://w3id.org/laas-iot/edr/iiot/factory#Floor0"
      },
      {
        "concentrates": [
          {
            "host": "http://syndream.laas.fr",
            "measures": "particle_level",
            "up": 0,
            "count": 1,
            "type": "sensor",
            "feature": "https://w3id.org/laas-iot/edr/iiot/factory#Floor1"
          },
          {
            "host": "http://syndream.laas.fr",
            "measures": "temperature",
            "up": 0,
            "count": 1,
            "type": "sensor",
            "feature": "https://w3id.org/laas-iot/edr/iiot/factory#Floor1"
          },
          {
            "concentrates": [
              {
                "host": "http://syndream.laas.fr",
                "measures": "luminosity",
                "up": 0,
                "count": 1,
                "type": "sensor",
                "feature": "https://w3id.org/laas-iot/edr/iiot/factory#Conveyor10"
              },
              {
                "host": "http://syndream.laas.fr",
                "measures": "presence",
                "up": 0,
                "count": 1,
                "type": "sensor",
                "feature": "https://w3id.org/laas-iot/edr/iiot/factory#Conveyor10"
              },
              {
                "host": "http://syndream.laas.fr",
                "measures": "conveyor_state",
                "up": 0,
                "count": 1,
                "type": "sensor",
                "feature": "https://w3id.org/laas-iot/edr/iiot/factory#Conveyor10"
              },
              {
                "host": "http://syndream.laas.fr",
                "measures": "conveyor_speed",
                "up": 0,
                "count": 1,
                "type": "sensor",
                "feature": "https://w3id.org/laas-iot/edr/iiot/factory#Conveyor10"
              },
              {
                "host": "http://syndream.laas.fr",
                "measures": "supervisor_presence",
                "up": 0,
                "count": 1,
                "type": "sensor",
                "feature": "https://w3id.org/laas-iot/edr/iiot/factory#Conveyor10"
              },
              {
                "concentrates": [
                  {
                    "host": "http://syndream.laas.fr",
                    "measures": "machine_state",
                    "up": 0,
                    "count": 1,
                    "type": "sensor",
                    "feature": "https://w3id.org/laas-iot/edr/iiot/factory#Machine100"
                  },
                  {
                    "host": "http://syndream.laas.fr",
                    "measures": "product_quality",
                    "up": 0,
                    "count": 1,
                    "type": "sensor",
                    "feature": "https://w3id.org/laas-iot/edr/iiot/factory#Machine100"
                  },
                  {
                    "host": "http://syndream.laas.fr",
                    "measures": "machine_speed",
                    "up": 0,
                    "count": 1,
                    "type": "sensor",
                    "feature": "https://w3id.org/laas-iot/edr/iiot/factory#Machine100"
                  }
                ],
                "host": "http://syndream.laas.fr",
                "count": 1,
                "type": "room",
                "feature": "https://w3id.org/laas-iot/edr/iiot/factory#Machine100"
              },
              {
                "concentrates": [
                  {
                    "host": "http://syndream.laas.fr",
                    "measures": "machine_state",
                    "up": 0,
                    "count": 1,
                    "type": "sensor",
                    "feature": "https://w3id.org/laas-iot/edr/iiot/factory#Machine101"
                  },
                  {
                    "host": "http://syndream.laas.fr",
                    "measures": "product_quality",
                    "up": 0,
                    "count": 1,
                    "type": "sensor",
                    "feature": "https://w3id.org/laas-iot/edr/iiot/factory#Machine101"
                  },
                  {
                    "host": "http://syndream.laas.fr",
                    "measures": "machine_speed",
                    "up": 0,
                    "count": 1,
                    "type": "sensor",
                    "feature": "https://w3id.org/laas-iot/edr/iiot/factory#Machine101"
                  }
                ],
                "host": "http://syndream.laas.fr",
                "count": 1,
                "type": "room",
                "feature": "https://w3id.org/laas-iot/edr/iiot/factory#Machine101"
              }
            ],
            "host": "http://syndream.laas.fr",
            "count": 1,
            "type": "gallery",
            "feature": "https://w3id.org/laas-iot/edr/iiot/factory#Conveyor10"
          },
          {
            "concentrates": [
              {
                "host": "http://syndream.laas.fr",
                "measures": "luminosity",
                "up": 0,
                "count": 1,
                "type": "sensor",
                "feature": "https://w3id.org/laas-iot/edr/iiot/factory#Conveyor11"
              },
              {
                "host": "http://syndream.laas.fr",
                "measures": "presence",
                "up": 0,
                "count": 1,
                "type": "sensor",
                "feature": "https://w3id.org/laas-iot/edr/iiot/factory#Conveyor11"
              },
              {
                "host": "http://syndream.laas.fr",
                "measures": "conveyor_state",
                "up": 0,
                "count": 1,
                "type": "sensor",
                "feature": "https://w3id.org/laas-iot/edr/iiot/factory#Conveyor11"
              },
              {
                "host": "http://syndream.laas.fr",
                "measures": "conveyor_speed",
                "up": 0,
                "count": 1,
                "type": "sensor",
                "feature": "https://w3id.org/laas-iot/edr/iiot/factory#Conveyor11"
              },
              {
                "host": "http://syndream.laas.fr",
                "measures": "supervisor_presence",
                "up": 0,
                "count": 1,
                "type": "sensor",
                "feature": "https://w3id.org/laas-iot/edr/iiot/factory#Conveyor11"
              },
              {
                "concentrates": [
                  {
                    "host": "http://syndream.laas.fr",
                    "measures": "machine_state",
                    "up": 0,
                    "count": 1,
                    "type": "sensor",
                    "feature": "https://w3id.org/laas-iot/edr/iiot/factory#Machine110"
                  },
                  {
                    "host": "http://syndream.laas.fr",
                    "measures": "product_quality",
                    "up": 0,
                    "count": 1,
                    "type": "sensor",
                    "feature": "https://w3id.org/laas-iot/edr/iiot/factory#Machine110"
                  },
                  {
                    "host": "http://syndream.laas.fr",
                    "measures": "machine_speed",
                    "up": 0,
                    "count": 1,
                    "type": "sensor",
                    "feature": "https://w3id.org/laas-iot/edr/iiot/factory#Machine110"
                  }
                ],
                "host": "http://syndream.laas.fr",
                "count": 1,
                "type": "room",
                "feature": "https://w3id.org/laas-iot/edr/iiot/factory#Machine110"
              },
              {
                "concentrates": [
                  {
                    "host": "http://syndream.laas.fr",
                    "measures": "machine_state",
                    "up": 0,
                    "count": 1,
                    "type": "sensor",
                    "feature": "https://w3id.org/laas-iot/edr/iiot/factory#Machine111"
                  },
                  {
                    "host": "http://syndream.laas.fr",
                    "measures": "product_quality",
                    "up": 0,
                    "count": 1,
                    "type": "sensor",
                    "feature": "https://w3id.org/laas-iot/edr/iiot/factory#Machine111"
                  },
                  {
                    "host": "http://syndream.laas.fr",
                    "measures": "machine_speed",
                    "up": 0,
                    "count": 1,
                    "type": "sensor",
                    "feature": "https://w3id.org/laas-iot/edr/iiot/factory#Machine111"
                  }
                ],
                "host": "http://syndream.laas.fr",
                "count": 1,
                "type": "room",
                "feature": "https://w3id.org/laas-iot/edr/iiot/factory#Machine111"
              }
            ],
            "host": "http://syndream.laas.fr",
            "count": 1,
            "type": "gallery",
            "feature": "https://w3id.org/laas-iot/edr/iiot/factory#Conveyor11"
          }
        ],
        "host": "http://naille.laas.fr",
        "count": 1,
        "type": "floor",
        "feature": "https://w3id.org/laas-iot/edr/iiot/factory#Floor1"
      },
      {
        "concentrates": [
          {
            "host": "http://syndream.laas.fr",
            "measures": "particle_level",
            "up": 0,
            "count": 1,
            "type": "sensor",
            "feature": "https://w3id.org/laas-iot/edr/iiot/factory#Floor2"
          },
          {
            "host": "http://syndream.laas.fr",
            "measures": "temperature",
            "up": 0,
            "count": 1,
            "type": "sensor",
            "feature": "https://w3id.org/laas-iot/edr/iiot/factory#Floor2"
          },
          {
            "concentrates": [
              {
                "host": "http://syndream.laas.fr",
                "measures": "luminosity",
                "up": 0,
                "count": 1,
                "type": "sensor",
                "feature": "https://w3id.org/laas-iot/edr/iiot/factory#Conveyor20"
              },
              {
                "host": "http://syndream.laas.fr",
                "measures": "presence",
                "up": 0,
                "count": 1,
                "type": "sensor",
                "feature": "https://w3id.org/laas-iot/edr/iiot/factory#Conveyor20"
              },
              {
                "host": "http://syndream.laas.fr",
                "measures": "conveyor_state",
                "up": 0,
                "count": 1,
                "type": "sensor",
                "feature": "https://w3id.org/laas-iot/edr/iiot/factory#Conveyor20"
              },
              {
                "host": "http://syndream.laas.fr",
                "measures": "conveyor_speed",
                "up": 0,
                "count": 1,
                "type": "sensor",
                "feature": "https://w3id.org/laas-iot/edr/iiot/factory#Conveyor20"
              },
              {
                "host": "http://syndream.laas.fr",
                "measures": "supervisor_presence",
                "up": 0,
                "count": 1,
                "type": "sensor",
                "feature": "https://w3id.org/laas-iot/edr/iiot/factory#Conveyor20"
              },
              {
                "concentrates": [
                  {
                    "host": "http://syndream.laas.fr",
                    "measures": "machine_state",
                    "up": 0,
                    "count": 1,
                    "type": "sensor",
                    "feature": "https://w3id.org/laas-iot/edr/iiot/factory#Machine200"
                  },
                  {
                    "host": "http://syndream.laas.fr",
                    "measures": "product_quality",
                    "up": 0,
                    "count": 1,
                    "type": "sensor",
                    "feature": "https://w3id.org/laas-iot/edr/iiot/factory#Machine200"
                  },
                  {
                    "host": "http://syndream.laas.fr",
                    "measures": "machine_speed",
                    "up": 0,
                    "count": 1,
                    "type": "sensor",
                    "feature": "https://w3id.org/laas-iot/edr/iiot/factory#Machine200"
                  }
                ],
                "host": "http://syndream.laas.fr",
                "count": 1,
                "type": "room",
                "feature": "https://w3id.org/laas-iot/edr/iiot/factory#Machine200"
              },
              {
                "concentrates": [
                  {
                    "host": "http://syndream.laas.fr",
                    "measures": "machine_state",
                    "up": 0,
                    "count": 1,
                    "type": "sensor",
                    "feature": "https://w3id.org/laas-iot/edr/iiot/factory#Machine201"
                  },
                  {
                    "host": "http://syndream.laas.fr",
                    "measures": "product_quality",
                    "up": 0,
                    "count": 1,
                    "type": "sensor",
                    "feature": "https://w3id.org/laas-iot/edr/iiot/factory#Machine201"
                  },
                  {
                    "host": "http://syndream.laas.fr",
                    "measures": "machine_speed",
                    "up": 0,
                    "count": 1,
                    "type": "sensor",
                    "feature": "https://w3id.org/laas-iot/edr/iiot/factory#Machine201"
                  }
                ],
                "host": "http://syndream.laas.fr",
                "count": 1,
                "type": "room",
                "feature": "https://w3id.org/laas-iot/edr/iiot/factory#Machine201"
              }
            ],
            "host": "http://syndream.laas.fr",
            "count": 1,
            "type": "gallery",
            "feature": "https://w3id.org/laas-iot/edr/iiot/factory#Conveyor20"
          },
          {
            "concentrates": [
              {
                "host": "http://syndream.laas.fr",
                "measures": "luminosity",
                "up": 0,
                "count": 1,
                "type": "sensor",
                "feature": "https://w3id.org/laas-iot/edr/iiot/factory#Conveyor21"
              },
              {
                "host": "http://syndream.laas.fr",
                "measures": "presence",
                "up": 0,
                "count": 1,
                "type": "sensor",
                "feature": "https://w3id.org/laas-iot/edr/iiot/factory#Conveyor21"
              },
              {
                "host": "http://syndream.laas.fr",
                "measures": "conveyor_state",
                "up": 0,
                "count": 1,
                "type": "sensor",
                "feature": "https://w3id.org/laas-iot/edr/iiot/factory#Conveyor21"
              },
              {
                "host": "http://syndream.laas.fr",
                "measures": "conveyor_speed",
                "up": 0,
                "count": 1,
                "type": "sensor",
                "feature": "https://w3id.org/laas-iot/edr/iiot/factory#Conveyor21"
              },
              {
                "host": "http://syndream.laas.fr",
                "measures": "supervisor_presence",
                "up": 0,
                "count": 1,
                "type": "sensor",
                "feature": "https://w3id.org/laas-iot/edr/iiot/factory#Conveyor21"
              },
              {
                "concentrates": [
                  {
                    "host": "http://syndream.laas.fr",
                    "measures": "machine_state",
                    "up": 0,
                    "count": 1,
                    "type": "sensor",
                    "feature": "https://w3id.org/laas-iot/edr/iiot/factory#Machine210"
                  },
                  {
                    "host": "http://syndream.laas.fr",
                    "measures": "product_quality",
                    "up": 0,
                    "count": 1,
                    "type": "sensor",
                    "feature": "https://w3id.org/laas-iot/edr/iiot/factory#Machine210"
                  },
                  {
                    "host": "http://syndream.laas.fr",
                    "measures": "machine_speed",
                    "up": 0,
                    "count": 1,
                    "type": "sensor",
                    "feature": "https://w3id.org/laas-iot/edr/iiot/factory#Machine210"
                  }
                ],
                "host": "http://syndream.laas.fr",
                "count": 1,
                "type": "room",
                "feature": "https://w3id.org/laas-iot/edr/iiot/factory#Machine210"
              },
              {
                "concentrates": [
                  {
                    "host": "http://syndream.laas.fr",
                    "measures": "machine_state",
                    "up": 0,
                    "count": 1,
                    "type": "sensor",
                    "feature": "https://w3id.org/laas-iot/edr/iiot/factory#Machine211"
                  },
                  {
                    "host": "http://syndream.laas.fr",
                    "measures": "product_quality",
                    "up": 0,
                    "count": 1,
                    "type": "sensor",
                    "feature": "https://w3id.org/laas-iot/edr/iiot/factory#Machine211"
                  },
                  {
                    "host": "http://syndream.laas.fr",
                    "measures": "machine_speed",
                    "up": 0,
                    "count": 1,
                    "type": "sensor",
                    "feature": "https://w3id.org/laas-iot/edr/iiot/factory#Machine211"
                  }
                ],
                "host": "http://syndream.laas.fr",
                "count": 1,
                "type": "room",
                "feature": "https://w3id.org/laas-iot/edr/iiot/factory#Machine211"
              }
            ],
            "host": "http://syndream.laas.fr",
            "count": 1,
            "type": "gallery",
            "feature": "https://w3id.org/laas-iot/edr/iiot/factory#Conveyor21"
          }
        ],
        "host": "http://rate.laas.fr",
        "count": 1,
        "type": "floor",
        "feature": "https://w3id.org/laas-iot/edr/iiot/factory#Floor2"
      }
    ]
  }
}
